{
  "Version": "2012-10-17",
  "Statement": [
      {
          "Sid": "VisualEditor0",
          "Effect": "Allow",
          "Action": [
              "ec2:DescribeInstances",
              "ec2:StartInstances",
              "ec2:StopInstances",
              "ec2:DescribeInstanceStatus",
              "ec2:DescribeTags"
          ],
          "Resource": "*"
      }
  ]
}